GLMM Maternal Mortality Federally- Summer 2025
…
# Dobbs was decided June 24, 2022
cutoff <- as.Date("2022-06-24")##when Roe v.Wade was overturned

deaths_df3$Dobbs_Era <- ifelse(deaths_df3$Date < cutoff, "Pre-Dobbs", "Post-Dobbs")
deaths_df3$Dobbs_Era <- factor(deaths_df3$Dobbs_Era, levels = c("Pre-Dobbs", "Post-Dobbs"))

df_age_year <- deaths_df %>%
  filter(!is.na(Age_Group), !is.na(Year)) %>%
  group_by(Year, Age_Group) %>%
  summarise(Maternal_Deaths = sum(Maternal_Deaths, na.rm = TRUE))
df_age_year

# A tibble: 21 × 3
# Groups:   Year [7]
   Year  Age_Group         Maternal_Deaths
   <fct> <fct>                       <int>
 1 2019  25-39 years                  6017
 2 2019  40 years and over            1139
 3 2019  Under 25 years               1320
 4 2020  25-39 years                  6824
 5 2020  40 years and over            1361
 6 2020  Under 25 years               1312
 7 2021  25-39 years                  8338
 8 2021  40 years and over            1975
 9 2021  Under 25 years               1558
10 2022  25-39 years                  9191
# ℹ 11 more rows
…
